{
  "content": [
    {
      "id": "4972027d-c88a-42a7-998f-94124b1a62b4",
      "title": "공지입니다.",
      "content": "{\"blocks\":[{\"key\":\"4m4b1\",\"text\":\"공집니다.\",\"type\":\"unstyled\",\"depth\":0,\"inlineStyleRanges\":[],\"entityRanges\":[],\"data\":{}}]}",
      "userId": "EDGEDEV3:_residenceService",
      "managerId": "byb.edgedev3",
      "likes": 0,
      "comments": 0,
      "readCount": 0,
      "allowComment": true,
      "createdAt": "2022-05-11T11:19:21.255536+09:00",
      "lastModifiedAt": "2022-05-11T11:19:21.269752+09:00",
      "link": {
        "id": "17849576-6f46-4836-bd0b-5f9ee5b7cc4f",
        "externalId": null,
        "externalType": null,
        "type": "NONE",
        "state": null
      },
      "pinned": false,
      "hidden": false,
      "scope": "EDGEDEV3:_residenceService",
      "scopeName": "EDGEDEV3:_residenceService",
      "deleted": false,
      "deletedBy": null,
      "deletedAt": null,
      "writtenBy": {
        "internalId": "0232328b-605f-4057-b296-c342bdafbe44",
        "id": "EDGEDEV3:_residenceService",
        "name": "개포도서관",
        "imageProfileSrc": {
          "key": "EDGEDEV3/2022-05-10-13:13:36_2819897847_곱창.jfif",
          "level": "public",
          "identityId": null
        },
        "userType": "MANAGEMENT_OFFICE",
        "rauthId": null,
        "savedTime": "2022-05-10T13:13:36.982435+09:00",
        "channelId": null,
        "danjiName": "초기기자화영단지",
        "backgroundImageUrl": {
          "key": "EDGEDEV3/feed/냥이.png",
          "level": "public",
          "identityId": null
        },
        "operationTime": "11:00 ~ 19:00",
        "mainPhoneNumber": "01011445522",
        "faxNumber": "",
        "description": "개포도서관입니다.",
        "subPhoneNumbers": [],
        "danjiOverviewImage": {
          "key": "EDGEDEV3/feed/곱창.jfif",
          "level": "public",
          "identityId": null
        }
      },
      "serviceName": "EDGEDEV3:_residenceService",
      "reportReasonCount": null,
      "reportCount": null,
      "reportCreatedAt": null,
      "reportState": null,
      "subTitle": null,
      "ilikeIt": false
    },
    {
      "id": "d5a23e02-8841-4a3b-89c3-574f038fa106",
      "title": "구독 공지",
      "content": "{\"blocks\":[{\"key\":\"89vto\",\"text\":\"구독 공지지지지지 베이베베이베\",\"type\":\"unstyled\",\"depth\":0,\"inlineStyleRanges\":[],\"entityRanges\":[],\"data\":{}},{\"key\":\"efvg2\",\"text\":\"\",\"type\":\"unstyled\",\"depth\":0,\"inlineStyleRanges\":[],\"entityRanges\":[],\"data\":{}},{\"key\":\"87hq1\",\"text\":\"아재요~아재요~\",\"type\":\"unstyled\",\"depth\":0,\"inlineStyleRanges\":[],\"entityRanges\":[],\"data\":{}}]}",
      "userId": "EDGEDEV3:_residenceService",
      "managerId": "byb.edgedev3",
      "likes": 0,
      "comments": 0,
      "readCount": 1,
      "allowComment": true,
      "createdAt": "2022-05-10T14:14:11.149547+09:00",
      "lastModifiedAt": "2022-05-10T17:25:36.879865+09:00",
      "link": {
        "id": "368dc340-cf64-42af-9381-22ffae531cee",
        "externalId": null,
        "externalType": null,
        "type": "NONE",
        "state": null
      },
      "pinned": false,
      "hidden": false,
      "scope": "EDGEDEV3:_residenceService",
      "scopeName": "EDGEDEV3:_residenceService",
      "deleted": false,
      "deletedBy": null,
      "deletedAt": null,
      "writtenBy": {
        "internalId": "0232328b-605f-4057-b296-c342bdafbe44",
        "id": "EDGEDEV3:_residenceService",
        "name": "개포도서관",
        "imageProfileSrc": {
          "key": "EDGEDEV3/2022-05-10-13:13:36_2819897847_곱창.jfif",
          "level": "public",
          "identityId": null
        },
        "userType": "MANAGEMENT_OFFICE",
        "rauthId": null,
        "savedTime": "2022-05-10T13:13:36.982435+09:00",
        "channelId": null,
        "danjiName": "초기기자화영단지",
        "backgroundImageUrl": {
          "key": "EDGEDEV3/feed/냥이.png",
          "level": "public",
          "identityId": null
        },
        "operationTime": "11:00 ~ 19:00",
        "mainPhoneNumber": "01011445522",
        "faxNumber": "",
        "description": "개포도서관입니다.",
        "subPhoneNumbers": [],
        "danjiOverviewImage": {
          "key": "EDGEDEV3/feed/곱창.jfif",
          "level": "public",
          "identityId": null
        }
      },
      "serviceName": "EDGEDEV3:_residenceService",
      "reportReasonCount": null,
      "reportCount": null,
      "reportCreatedAt": null,
      "reportState": null,
      "subTitle": null,
      "ilikeIt": false
    },
    {
      "id": "1821fe89-ddfd-4dc9-9ada-583e8e4a43f0",
      "title": "추첨 공지",
      "content": "{\"blocks\":[{\"key\":\"9ot9u\",\"text\":\"추첨 공지지지지지 베이베베이베\",\"type\":\"unstyled\",\"depth\":0,\"inlineStyleRanges\":[],\"entityRanges\":[],\"data\":{}}]}",
      "userId": "EDGEDEV3:_residenceService",
      "managerId": "byb.edgedev3",
      "likes": 0,
      "comments": 0,
      "readCount": 1,
      "allowComment": false,
      "createdAt": "2022-05-10T14:08:19.129399+09:00",
      "lastModifiedAt": "2022-05-10T14:09:13.646867+09:00",
      "link": {
        "id": "f142a7bf-e996-4503-905f-f1da7b113c7d",
        "externalId": "90781b42-12f3-4972-aec2-d74a8f141832",
        "externalType": "VOTE",
        "type": "EXTERNAL",
        "state": null
      },
      "pinned": true,
      "hidden": false,
      "scope": "EDGEDEV3:_residenceService",
      "scopeName": "EDGEDEV3:_residenceService",
      "deleted": false,
      "deletedBy": null,
      "deletedAt": null,
      "writtenBy": {
        "internalId": "0232328b-605f-4057-b296-c342bdafbe44",
        "id": "EDGEDEV3:_residenceService",
        "name": "개포도서관",
        "imageProfileSrc": {
          "key": "EDGEDEV3/2022-05-10-13:13:36_2819897847_곱창.jfif",
          "level": "public",
          "identityId": null
        },
        "userType": "MANAGEMENT_OFFICE",
        "rauthId": null,
        "savedTime": "2022-05-10T13:13:36.982435+09:00",
        "channelId": null,
        "danjiName": "초기기자화영단지",
        "backgroundImageUrl": {
          "key": "EDGEDEV3/feed/냥이.png",
          "level": "public",
          "identityId": null
        },
        "operationTime": "11:00 ~ 19:00",
        "mainPhoneNumber": "01011445522",
        "faxNumber": "",
        "description": "개포도서관입니다.",
        "subPhoneNumbers": [],
        "danjiOverviewImage": {
          "key": "EDGEDEV3/feed/곱창.jfif",
          "level": "public",
          "identityId": null
        }
      },
      "serviceName": "EDGEDEV3:_residenceService",
      "reportReasonCount": null,
      "reportCount": null,
      "reportCreatedAt": null,
      "reportState": null,
      "subTitle": null,
      "ilikeIt": false
    },
    {
      "id": "64c880bb-9884-4ba1-b66e-1e266e0be8ae",
      "title": "강좌 공지",
      "content": "{\"blocks\":[{\"key\":\"1s9mh\",\"text\":\"강좌 공지지지지지 베이베베이베\",\"type\":\"unstyled\",\"depth\":0,\"inlineStyleRanges\":[],\"entityRanges\":[],\"data\":{}}]}",
      "userId": "EDGEDEV3:_residenceService",
      "managerId": "byb.edgedev3",
      "likes": 0,
      "comments": 0,
      "readCount": 0,
      "allowComment": false,
      "createdAt": "2022-05-10T14:06:11.281084+09:00",
      "lastModifiedAt": "2022-05-10T14:06:11.299002+09:00",
      "link": {
        "id": "7003612d-5fd3-48ef-8429-59d8f57cc1ab",
        "externalId": null,
        "externalType": null,
        "type": "NONE",
        "state": null
      },
      "pinned": false,
      "hidden": true,
      "scope": "EDGEDEV3:102동 602호 관리사무소",
      "scopeName": "EDGEDEV3:102동 602호 관리사무소",
      "deleted": false,
      "deletedBy": null,
      "deletedAt": null,
      "writtenBy": {
        "internalId": "0232328b-605f-4057-b296-c342bdafbe44",
        "id": "EDGEDEV3:_residenceService",
        "name": "개포도서관",
        "imageProfileSrc": {
          "key": "EDGEDEV3/2022-05-10-13:13:36_2819897847_곱창.jfif",
          "level": "public",
          "identityId": null
        },
        "userType": "MANAGEMENT_OFFICE",
        "rauthId": null,
        "savedTime": "2022-05-10T13:13:36.982435+09:00",
        "channelId": null,
        "danjiName": "초기기자화영단지",
        "backgroundImageUrl": {
          "key": "EDGEDEV3/feed/냥이.png",
          "level": "public",
          "identityId": null
        },
        "operationTime": "11:00 ~ 19:00",
        "mainPhoneNumber": "01011445522",
        "faxNumber": "",
        "description": "개포도서관입니다.",
        "subPhoneNumbers": [],
        "danjiOverviewImage": {
          "key": "EDGEDEV3/feed/곱창.jfif",
          "level": "public",
          "identityId": null
        }
      },
      "serviceName": "EDGEDEV3:102동 602호 관리사무소",
      "reportReasonCount": null,
      "reportCount": null,
      "reportCreatedAt": null,
      "reportState": null,
      "subTitle": null,
      "ilikeIt": false
    },
    {
      "id": "f85fac43-4d08-4415-a1e5-d39388cc3ff7",
      "title": "예약 공지",
      "content": "{\"blocks\":[{\"key\":\"9qo8q\",\"text\":\"예약 공지지지지지 베이베베이베\",\"type\":\"unstyled\",\"depth\":0,\"inlineStyleRanges\":[],\"entityRanges\":[],\"data\":{}}]}",
      "userId": "EDGEDEV3:_residenceService",
      "managerId": "byb.edgedev3",
      "likes": 0,
      "comments": 0,
      "readCount": 0,
      "allowComment": true,
      "createdAt": "2022-05-10T14:05:29.862297+09:00",
      "lastModifiedAt": "2022-05-10T14:05:29.878741+09:00",
      "link": {
        "id": "0bb23e5a-01bb-468a-9f8d-8e65fc513469",
        "externalId": null,
        "externalType": null,
        "type": "NONE",
        "state": null
      },
      "pinned": false,
      "hidden": true,
      "scope": "EDGEDEV3:101동 302호 관리사무소",
      "scopeName": "EDGEDEV3:101동 302호 관리사무소",
      "deleted": false,
      "deletedBy": null,
      "deletedAt": null,
      "writtenBy": {
        "internalId": "0232328b-605f-4057-b296-c342bdafbe44",
        "id": "EDGEDEV3:_residenceService",
        "name": "개포도서관",
        "imageProfileSrc": {
          "key": "EDGEDEV3/2022-05-10-13:13:36_2819897847_곱창.jfif",
          "level": "public",
          "identityId": null
        },
        "userType": "MANAGEMENT_OFFICE",
        "rauthId": null,
        "savedTime": "2022-05-10T13:13:36.982435+09:00",
        "channelId": null,
        "danjiName": "초기기자화영단지",
        "backgroundImageUrl": {
          "key": "EDGEDEV3/feed/냥이.png",
          "level": "public",
          "identityId": null
        },
        "operationTime": "11:00 ~ 19:00",
        "mainPhoneNumber": "01011445522",
        "faxNumber": "",
        "description": "개포도서관입니다.",
        "subPhoneNumbers": [],
        "danjiOverviewImage": {
          "key": "EDGEDEV3/feed/곱창.jfif",
          "level": "public",
          "identityId": null
        }
      },
      "serviceName": "EDGEDEV3:101동 302호 관리사무소",
      "reportReasonCount": null,
      "reportCount": null,
      "reportCreatedAt": null,
      "reportState": null,
      "subTitle": null,
      "ilikeIt": false
    },
    {
      "id": "d858ea9a-0745-4a5f-990b-b27df9e26577",
      "title": "설문 공지",
      "content": "{\"blocks\":[{\"key\":\"3ohr9\",\"text\":\"설문 공지지지지지 베이베베이베\",\"type\":\"unstyled\",\"depth\":0,\"inlineStyleRanges\":[],\"entityRanges\":[],\"data\":{}}]}",
      "userId": "EDGEDEV3:_residenceService",
      "managerId": "byb.edgedev3",
      "likes": 0,
      "comments": 0,
      "readCount": 0,
      "allowComment": true,
      "createdAt": "2022-05-10T14:04:38.902501+09:00",
      "lastModifiedAt": "2022-05-10T14:04:38.946987+09:00",
      "link": {
        "id": "d81883fa-c085-4c10-a2de-7bf738739a54",
        "externalId": null,
        "externalType": null,
        "type": "NONE",
        "state": null
      },
      "pinned": false,
      "hidden": false,
      "scope": "EDGEDEV3:101동 101호 관리사무소",
      "scopeName": "EDGEDEV3:101동 101호 관리사무소",
      "deleted": false,
      "deletedBy": null,
      "deletedAt": null,
      "writtenBy": {
        "internalId": "0232328b-605f-4057-b296-c342bdafbe44",
        "id": "EDGEDEV3:_residenceService",
        "name": "개포도서관",
        "imageProfileSrc": {
          "key": "EDGEDEV3/2022-05-10-13:13:36_2819897847_곱창.jfif",
          "level": "public",
          "identityId": null
        },
        "userType": "MANAGEMENT_OFFICE",
        "rauthId": null,
        "savedTime": "2022-05-10T13:13:36.982435+09:00",
        "channelId": null,
        "danjiName": "초기기자화영단지",
        "backgroundImageUrl": {
          "key": "EDGEDEV3/feed/냥이.png",
          "level": "public",
          "identityId": null
        },
        "operationTime": "11:00 ~ 19:00",
        "mainPhoneNumber": "01011445522",
        "faxNumber": "",
        "description": "개포도서관입니다.",
        "subPhoneNumbers": [],
        "danjiOverviewImage": {
          "key": "EDGEDEV3/feed/곱창.jfif",
          "level": "public",
          "identityId": null
        }
      },
      "serviceName": "EDGEDEV3:101동 101호 관리사무소",
      "reportReasonCount": null,
      "reportCount": null,
      "reportCreatedAt": null,
      "reportState": null,
      "subTitle": null,
      "ilikeIt": false
    },
    {
      "id": "f65a0f08-bbc2-4f03-9930-9893d3f17537",
      "title": "양4",
      "content": "{\"blocks\":[{\"key\":\"dv6s3\",\"text\":\"\",\"type\":\"unstyled\",\"depth\":0,\"inlineStyleRanges\":[],\"entityRanges\":[],\"data\":{}},{\"key\":\"535uo\",\"text\":\" \",\"type\":\"atomic\",\"depth\":0,\"inlineStyleRanges\":[],\"entityRanges\":[{\"offset\":0,\"length\":1,\"key\":0}],\"data\":{\"type\":\"image\",\"url\":{\"key\":\"EDGEDEV3/feed/2022-05-02T16:42:17.521Z/양/KakaoTalk_20220415_152947426_05.jpg\",\"level\":\"public\"}}},{\"key\":\"4sma1\",\"text\":\"귀엽... 왜 안업데이트... aaabbb\",\"type\":\"unstyled\",\"depth\":0,\"inlineStyleRanges\":[],\"entityRanges\":[],\"data\":{}}]}",
      "userId": "EDGEDEV3:_residenceService",
      "managerId": "byb.edgedev3",
      "likes": 0,
      "comments": 5,
      "readCount": 0,
      "allowComment": false,
      "createdAt": "2022-05-03T01:42:17.509179+09:00",
      "lastModifiedAt": "2022-05-10T13:46:31.479139+09:00",
      "link": {
        "id": "ad5379a0-c5b0-4dd1-bb50-9a25d4bc7377",
        "externalId": "ae174831-3394-42a5-87e3-dc1d30405097",
        "externalType": "SURVEY",
        "type": "EXTERNAL",
        "state": null
      },
      "pinned": false,
      "hidden": true,
      "scope": "EDGEDEV3:101동 403호 관리사무소",
      "scopeName": "EDGEDEV3:101동 403호 관리사무소",
      "deleted": false,
      "deletedBy": null,
      "deletedAt": null,
      "writtenBy": {
        "internalId": "0232328b-605f-4057-b296-c342bdafbe44",
        "id": "EDGEDEV3:_residenceService",
        "name": "개포도서관",
        "imageProfileSrc": {
          "key": "EDGEDEV3/2022-05-10-13:13:36_2819897847_곱창.jfif",
          "level": "public",
          "identityId": null
        },
        "userType": "MANAGEMENT_OFFICE",
        "rauthId": null,
        "savedTime": "2022-05-10T13:13:36.982435+09:00",
        "channelId": null,
        "danjiName": "초기기자화영단지",
        "backgroundImageUrl": {
          "key": "EDGEDEV3/feed/냥이.png",
          "level": "public",
          "identityId": null
        },
        "operationTime": "11:00 ~ 19:00",
        "mainPhoneNumber": "01011445522",
        "faxNumber": "",
        "description": "개포도서관입니다.",
        "subPhoneNumbers": [],
        "danjiOverviewImage": {
          "key": "EDGEDEV3/feed/곱창.jfif",
          "level": "public",
          "identityId": null
        }
      },
      "serviceName": "EDGEDEV3:101동 403호 관리사무소",
      "reportReasonCount": null,
      "reportCount": null,
      "reportCreatedAt": null,
      "reportState": null,
      "subTitle": null,
      "ilikeIt": false
    },
    {
      "id": "3160753f-758a-4bec-80ef-0e4cdf166191",
      "title": "냐옹",
      "content": "{\"blocks\":[{\"key\":\"b3kvq\",\"text\":\"냐옹\",\"type\":\"unstyled\",\"depth\":0,\"inlineStyleRanges\":[],\"entityRanges\":[],\"data\":{}},{\"key\":\"doi29\",\"text\":\" \",\"type\":\"atomic\",\"depth\":0,\"inlineStyleRanges\":[],\"entityRanges\":[{\"offset\":0,\"length\":1,\"key\":0}],\"data\":{\"type\":\"image\",\"url\":{\"key\":\"EDGEDEV3/feed/2022-05-02T09:18:31.376Z/냐옹/KakaoTalk_20220415_152947426.jpg\",\"level\":\"public\"}}},{\"key\":\"aih6a\",\"text\":\"\",\"type\":\"unstyled\",\"depth\":0,\"inlineStyleRanges\":[],\"entityRanges\":[],\"data\":{}}]}",
      "userId": "EDGEDEV3:_residenceService",
      "managerId": "byb.edgedev3",
      "likes": 0,
      "comments": 0,
      "readCount": 1,
      "allowComment": true,
      "createdAt": "2022-05-02T18:18:31.921714+09:00",
      "lastModifiedAt": "2022-05-03T02:16:39.192891+09:00",
      "link": {
        "id": "d4fd4043-6285-4fa3-91ef-1b1b1ba45032",
        "externalId": null,
        "externalType": null,
        "type": "NONE",
        "state": null
      },
      "pinned": false,
      "hidden": false,
      "scope": "EDGEDEV3:103동 2라인",
      "scopeName": "EDGEDEV3:103동 2라인",
      "deleted": false,
      "deletedBy": null,
      "deletedAt": null,
      "writtenBy": {
        "internalId": "0232328b-605f-4057-b296-c342bdafbe44",
        "id": "EDGEDEV3:_residenceService",
        "name": "개포도서관",
        "imageProfileSrc": {
          "key": "EDGEDEV3/2022-05-10-13:13:36_2819897847_곱창.jfif",
          "level": "public",
          "identityId": null
        },
        "userType": "MANAGEMENT_OFFICE",
        "rauthId": null,
        "savedTime": "2022-05-10T13:13:36.982435+09:00",
        "channelId": null,
        "danjiName": "초기기자화영단지",
        "backgroundImageUrl": {
          "key": "EDGEDEV3/feed/냥이.png",
          "level": "public",
          "identityId": null
        },
        "operationTime": "11:00 ~ 19:00",
        "mainPhoneNumber": "01011445522",
        "faxNumber": "",
        "description": "개포도서관입니다.",
        "subPhoneNumbers": [],
        "danjiOverviewImage": {
          "key": "EDGEDEV3/feed/곱창.jfif",
          "level": "public",
          "identityId": null
        }
      },
      "serviceName": "EDGEDEV3:103동 2라인",
      "reportReasonCount": null,
      "reportCount": null,
      "reportCreatedAt": null,
      "reportState": null,
      "subTitle": null,
      "ilikeIt": false
    },
    {
      "id": "8948073c-78ae-413a-905d-d9a9baa61488",
      "title": "가맛포빵!!",
      "content": "{\"blocks\":[{\"key\":\"cic4d\",\"text\":\"내용\",\"type\":\"unstyled\",\"depth\":0,\"inlineStyleRanges\":[],\"entityRanges\":[],\"data\":{}}]}",
      "userId": "EDGEDEV3:_residenceService",
      "managerId": "byb.edgedev3",
      "likes": 0,
      "comments": 0,
      "readCount": 1,
      "allowComment": true,
      "createdAt": "2022-05-02T00:17:26.62671+09:00",
      "lastModifiedAt": "2022-05-10T13:49:53.553955+09:00",
      "link": {
        "id": "715191e5-0a32-4d66-8268-09189b6e0f57",
        "externalId": "cca23af9-4d11-42be-9652-1ebd358fc55f",
        "externalType": "SURVEY",
        "type": "EXTERNAL",
        "state": null
      },
      "pinned": false,
      "hidden": false,
      "scope": "EDGEDEV3:_residenceService",
      "scopeName": "EDGEDEV3:_residenceService",
      "deleted": false,
      "deletedBy": null,
      "deletedAt": null,
      "writtenBy": {
        "internalId": "0232328b-605f-4057-b296-c342bdafbe44",
        "id": "EDGEDEV3:_residenceService",
        "name": "개포도서관",
        "imageProfileSrc": {
          "key": "EDGEDEV3/2022-05-10-13:13:36_2819897847_곱창.jfif",
          "level": "public",
          "identityId": null
        },
        "userType": "MANAGEMENT_OFFICE",
        "rauthId": null,
        "savedTime": "2022-05-10T13:13:36.982435+09:00",
        "channelId": null,
        "danjiName": "초기기자화영단지",
        "backgroundImageUrl": {
          "key": "EDGEDEV3/feed/냥이.png",
          "level": "public",
          "identityId": null
        },
        "operationTime": "11:00 ~ 19:00",
        "mainPhoneNumber": "01011445522",
        "faxNumber": "",
        "description": "개포도서관입니다.",
        "subPhoneNumbers": [],
        "danjiOverviewImage": {
          "key": "EDGEDEV3/feed/곱창.jfif",
          "level": "public",
          "identityId": null
        }
      },
      "serviceName": "EDGEDEV3:_residenceService",
      "reportReasonCount": null,
      "reportCount": null,
      "reportCreatedAt": null,
      "reportState": null,
      "subTitle": null,
      "ilikeIt": false
    },
    {
      "id": "9eb8989f-889c-4884-8ef4-830568502899",
      "title": "대관 구독",
      "content": "{\"blocks\":[{\"key\":\"ee43c\",\"text\":\"ㅇㅇ\",\"type\":\"unstyled\",\"depth\":0,\"inlineStyleRanges\":[],\"entityRanges\":[],\"data\":{}}]}",
      "userId": "EDGEDEV3:_residenceService",
      "managerId": "byb.edgedev3",
      "likes": 0,
      "comments": 1,
      "readCount": 0,
      "allowComment": false,
      "createdAt": "2022-04-30T14:48:30.588179+09:00",
      "lastModifiedAt": "2022-04-30T14:48:30.617915+09:00",
      "link": {
        "id": "ac36c04d-dd8f-4dc0-9ac8-9b64430e6a3f",
        "externalId": null,
        "externalType": null,
        "type": "NONE",
        "state": null
      },
      "pinned": false,
      "hidden": true,
      "scope": "EDGEDEV3:_residenceService",
      "scopeName": "EDGEDEV3:_residenceService",
      "deleted": false,
      "deletedBy": null,
      "deletedAt": null,
      "writtenBy": {
        "internalId": "0232328b-605f-4057-b296-c342bdafbe44",
        "id": "EDGEDEV3:_residenceService",
        "name": "개포도서관",
        "imageProfileSrc": {
          "key": "EDGEDEV3/2022-05-10-13:13:36_2819897847_곱창.jfif",
          "level": "public",
          "identityId": null
        },
        "userType": "MANAGEMENT_OFFICE",
        "rauthId": null,
        "savedTime": "2022-05-10T13:13:36.982435+09:00",
        "channelId": null,
        "danjiName": "초기기자화영단지",
        "backgroundImageUrl": {
          "key": "EDGEDEV3/feed/냥이.png",
          "level": "public",
          "identityId": null
        },
        "operationTime": "11:00 ~ 19:00",
        "mainPhoneNumber": "01011445522",
        "faxNumber": "",
        "description": "개포도서관입니다.",
        "subPhoneNumbers": [],
        "danjiOverviewImage": {
          "key": "EDGEDEV3/feed/곱창.jfif",
          "level": "public",
          "identityId": null
        }
      },
      "serviceName": "EDGEDEV3:_residenceService",
      "reportReasonCount": null,
      "reportCount": null,
      "reportCreatedAt": null,
      "reportState": null,
      "subTitle": null,
      "ilikeIt": false
    }
  ],
  "pageable": {
    "sort": [
      {
        "direction": "DESC",
        "property": "createdAt",
        "ignoreCase": false,
        "nullHandling": "NATIVE",
        "ascending": false,
        "descending": true
      }
    ],
    "pageNumber": 0,
    "pageSize": 10,
    "offset": 0,
    "paged": true,
    "unpaged": false
  },
  "totalElements": 155,
  "totalPages": 16,
  "last": false,
  "sort": [
    {
      "direction": "DESC",
      "property": "createdAt",
      "ignoreCase": false,
      "nullHandling": "NATIVE",
      "ascending": false,
      "descending": true
    }
  ],
  "number": 0,
  "numberOfElements": 10,
  "first": true,
  "size": 10,
  "empty": false
}
